<svg width="119" height="64" viewBox="0 0 119 64" fill="none" xmlns="http://www.w3.org/2000/svg">
<path fill-rule="evenodd" clip-rule="evenodd" d="M32 0V64H0V0H32ZM16.4136 31.9198C10.676 31.9598 5.8792 36.9273 5.8792 42.7875C5.8792 48.7971 10.676 53.4734 16.4136 53.4734C19.9086 53.4734 23.2884 51.3931 24.466 49.7687L24.5501 49.6478V44.7011H27.2808V43.8867H17.2957V44.7011H20.9683V51.3801L20.8435 51.4516C19.9374 51.9592 18.3558 52.5934 16.4136 52.5934C11.8291 52.5934 10.0392 49.7705 10.0392 42.6969C10.0392 35.6249 11.9208 32.8281 16.444 32.7971C18.4904 32.8099 19.7144 33.2627 20.7853 34.1737C21.6103 35.1307 22.5511 36.3816 23.0425 37.9545L23.1347 38.2734H23.564V32.435H23.0781L23.029 32.5437C22.9461 32.7148 22.858 32.8359 22.7624 32.907C22.6488 32.9934 22.4568 33.0355 22.1907 33.0355C21.9416 33.0355 21.636 32.9785 21.2749 32.8633C20.9117 32.7486 20.5016 32.6302 20.0435 32.5049C19.5853 32.3817 19.0888 32.2638 18.5544 32.1486C18.3053 32.0958 18.0525 32.0558 17.7965 32.0281C17.3613 31.9566 16.9032 31.9161 16.4136 31.9198ZM23.9392 23.1488H7.97973V24.7301H23.9392V23.1488ZM23.9448 7.97995H17.9245V15.9597H24.0013V14.3986H19.6691V12.7229H23.4317V11.1597H19.6691V9.54208H23.9448V7.97995ZM11.1544 7.97995H8.0408V15.9597H11.1544L11.3457 15.9563C13.6844 15.8722 15.3054 14.2494 15.3913 12.1462L15.3949 11.9698V11.9474L15.3915 11.7757C15.3055 9.61389 13.5973 7.97995 11.1544 7.97995ZM68.3284 7.85552C69.6355 7.85552 70.4588 8.19117 71.2229 8.80028L71.3656 8.91767L70.2933 10.2122C69.6954 9.71229 69.1677 9.42663 68.2713 9.42663C67.0775 9.42663 66.1206 10.442 66.0537 11.6953L66.05 11.8355V11.8558C66.05 13.2713 67.021 14.3095 68.3912 14.3095C68.9422 14.3095 69.4397 14.1861 69.8451 13.9419L69.9927 13.8447V12.7399H68.2815V11.2695H71.6395V14.6282C70.8481 15.305 69.7513 15.8555 68.3401 15.8555C65.9904 15.8555 64.3592 14.2523 64.275 12.0569L64.2716 11.8776V11.8558C64.2716 9.6574 65.9855 7.85552 68.3284 7.85552ZM82.8329 7.98929V12.3642C82.8329 13.6246 83.465 14.2748 84.5032 14.2748C85.4957 14.2748 86.1152 13.6994 86.1672 12.5757L86.1707 12.4191V7.98929H87.8729V12.3546C87.8729 14.6953 86.5619 15.8454 84.4813 15.8454C82.4679 15.8454 81.2112 14.7539 81.1368 12.6138L81.1334 12.41V7.98929H82.8329ZM115.469 7.98929C117.229 7.98929 118.312 8.88769 118.382 10.3855L118.386 10.5426V10.5629C118.386 11.7521 117.776 12.5203 116.868 12.9066L116.729 12.9616L118.613 15.7234H116.628L114.973 13.2473H113.632V15.7234H111.932V7.98929H115.469ZM110.365 7.98929V9.50391H106.222V11.0734H109.869V12.5875H106.222V14.2098H110.419V15.7234H104.532V7.98929H110.365ZM103.45 7.98929V9.5588H101.093V15.7234H99.393V9.5588H97.0422V7.98929H103.45ZM90.657 7.98929L92.5026 11.0937L94.3786 7.98929H96.3137L93.3399 12.6424V15.7234H91.6382V12.6744L88.6686 7.98929H90.657ZM76.8037 7.98929C78.5641 7.98929 79.6457 8.88769 79.7158 10.3855L79.7195 10.5426V10.5629C79.7195 11.7521 79.1085 12.5203 78.1995 12.9066L78.0609 12.9616L79.9513 15.7234H77.9634L76.306 13.2473H74.9699V15.7234H73.2703V7.98929H76.8037ZM59.5034 7.98929V9.50391H55.3608V11.0734H59.0067V12.5875H55.3608V14.2098H59.5582V15.7234H53.6698V7.98929H59.5034ZM48.2679 7.98929C50.6352 7.98929 52.2885 9.57076 52.3739 11.6647L52.3774 11.8355V11.8558C52.3774 13.9761 50.7863 15.6341 48.4582 15.7199L48.2679 15.7234H45.2503V7.98929H48.2679ZM11.1544 9.56501C12.5394 9.56501 13.4904 10.4859 13.5566 11.8199L13.5603 11.9698V11.9933L13.5566 12.1429C13.4929 13.4244 12.6086 14.3088 11.3065 14.3725L11.1544 14.3762H9.7976V9.56501H11.1544ZM48.2679 9.52576H46.9536V14.1885H48.2679C49.6097 14.1885 50.5323 13.3133 50.5964 12.0227L50.6 11.8776V11.8558C50.6 10.4877 49.6594 9.52576 48.2679 9.52576ZM115.324 9.52576H113.632V11.7455H115.356C116.141 11.7455 116.609 11.3533 116.658 10.7593L116.663 10.6524V10.6306C116.663 9.90149 116.154 9.52576 115.324 9.52576ZM76.6577 9.52576H74.9699V11.7455H76.694C77.4761 11.7455 77.9412 11.3533 77.9905 10.7593L77.9949 10.6524V10.6306C77.9949 9.90149 77.4896 9.52576 76.6577 9.52576Z" fill="white"/>
</svg>
