<?xml version="1.0" encoding="utf-8"?>
<svg version="1.1" id="Layer_1" x="0px" y="0px" width="655.073px" height="78.609px" viewBox="0 -98.741 655.073 78.609" enable-background="new 0 -98.741 655.073 78.609" xmlns="http://www.w3.org/2000/svg">
  <rect y="19.671" fill="#D8D2C4" width="655.073" height="78.609" transform="matrix(-1, 0, 0, -1, 0, 0)" x="-654.733"/>
  <g transform="matrix(-1, 0, 0, -1, 654.732666, -118.412315)">
    <g>
      <g>
        <defs>
          <rect id="SVGID_1_" y="-98.741" width="655.073" height="78.609"/>
        </defs>
        <clipPath id="SVGID_2_">
          <rect id="" y="-98.741" width="655.073" height="78.609" transform="matrix(1, 0, 0, 1, 0, 0)"/>
        </clipPath>
        <g clip-path="url(#SVGID_2_)">
          <polygon fill="#3EB1C8" points="543.384,-276.069 439.488,-380.03 282.729,-62.975 485.999,-162.283 &#9;&#9;&#9;&#9;"/>
          <polygon fill="#D8D2C4" points="599.785,-219.732 485.999,-162.283 386.689,40.986 500.477,-16.464 &#9;&#9;&#9;&#9;"/>
          <polygon fill="#4F5858" points="485.999,-162.283 282.729,-62.975 386.689,40.986 &#9;&#9;&#9;&#9;"/>
          <polygon fill="#FFC72C" points="546.985,201.282 703.745,-115.772 500.477,-16.464 443.092,97.323 &#9;&#9;&#9;&#9;"/>
          <polygon fill="#EF3340" points="599.785,-219.732 500.477,-16.464 703.745,-115.772 &#9;&#9;&#9;&#9;"/>
        </g>
      </g>
    </g>
  </g>
</svg>