<?xml version="1.0" encoding="utf-8"?>
<!-- Generator: Adobe Illustrator 21.0.0, SVG Export Plug-In . SVG Version: 6.00 Build 0)  -->
<svg version="1.1" id="Layer_1" xmlns="http://www.w3.org/2000/svg" xmlns:xlink="http://www.w3.org/1999/xlink" x="0px" y="0px"
	 viewBox="0 0 24 48" style="enable-background:new 0 0 24 48;" xml:space="preserve">
<style type="text/css">
	.st0{fill:#FFFFFF;stroke:#808080;stroke-miterlimit:10;}
	.st1{fill:none;stroke:#808080;stroke-miterlimit:10;}
	.st2{fill:#3EB1C8;}
</style>
<rect x="0.5" y="0.5" class="st0" width="23" height="23"/>
<rect x="0.5" y="24.5" class="st1" width="23" height="23"/>
<rect x="5.5" y="29.5" class="st2" width="13" height="13"/>
</svg>
