<?xml version="1.0" encoding="utf-8"?>
<!-- Generator: Adobe Illustrator 15.1.0, SVG Export Plug-In . SVG Version: 6.00 Build 0)  -->
<!DOCTYPE svg PUBLIC "-//W3C//DTD SVG 1.1//EN" "http://www.w3.org/Graphics/SVG/1.1/DTD/svg11.dtd">
<svg version="1.1" id="Layer_1" xmlns="http://www.w3.org/2000/svg" xmlns:xlink="http://www.w3.org/1999/xlink" x="0px" y="0px"
	 width="148.398px" height="134.868px" viewBox="0 0 148.398 134.868" enable-background="new 0 0 148.398 134.868"
	 xml:space="preserve">
<rect x="85.73" y="15.19" transform="matrix(0.7965 -0.6046 0.6046 0.7965 5.4514 61.0436)" fill="#FFFFFF" width="15.38" height="14.464"/>
<rect x="106.197" y="16.893" transform="matrix(1 -0.0067 0.0067 1 -0.1908 0.7948)" fill="#FFFFFF" width="24.63" height="23.958"/>
<polygon fill="#555A59" points="71.534,29.324 97.747,50.651 148.398,55.982 "/>
<path fill="#555A59" d="M86.55,22.268c0-3.686,2.988-6.673,6.674-6.673c1.869,0,3.559,0.771,4.77,2.01L137.735,0l-36.878,3.998
	L71.534,29.324l15.036-6.66C86.562,22.532,86.55,22.401,86.55,22.268z"/>
<polygon fill="#E0DACD" points="0,46.208 3.999,14.662 8.442,37.766 "/>
<path fill="#E83F4B" d="M113.665,100.641l-4.8,6.171l9.876,4.267c2.187,0.942,4.033-1.869,2.299-3.5L113.665,100.641z"/>
<g>
	<polygon fill="#FFCF21" points="97.747,50.651 94.193,88.861 148.397,55.983 	"/>
</g>
<polygon fill="#E0DACD" points="85.529,81.863 81.068,88.915 83.454,90.625 94.192,88.861 94.193,88.861 "/>
<polygon fill="#FFCF21" points="61.759,94.193 98.637,119.963 94.192,88.861 "/>
<polygon fill="#00B5D8" points="52.153,87.336 51.952,89.122 58.247,92.377 59.971,90.866 60.357,84.133 "/>
<polygon fill="#FFCF21" points="43.956,82.954 43.909,84.961 41.559,83.745 41.559,83.745 51.952,89.122 52.983,79.976 "/>
<polygon fill="#E83F4B" points="36.448,81.102 43.909,84.961 44.098,76.865 36.467,79.7 "/>
<polygon fill="#00B5D8" points="23.104,74.2 28.301,76.888 29.458,76.479 29.991,70.534 22.499,72.695 8.442,37.767 0,46.208 
	3.11,83.086 "/>
<path fill="#E83F4B" d="M44.468,113.092l1.606,15.281c0.312,2.971,4.525,3.26,5.242,0.359l3.539-14.324L44.468,113.092z"/>
<path fill="#00B5D8" d="M62.835,115.422l1.188,11.297c0.212,2.02,3.076,2.218,3.563,0.244l2.622-10.606L62.835,115.422z"/>
<g>
	<path fill="#FFCF21" d="M78.565,117.417l5.131,15.514c0.994,3.002,5.417,2.352,5.505-0.811l0.365-13.308L78.565,117.417z"/>
</g>
<path fill="#FFCF21" d="M19.178,96.178l-8.067,11.994c-1.667,2.479,1.378,5.406,3.789,3.643l12.365-9.048L19.178,96.178z"/>
<polygon fill="#E83F4B" points="3.11,83.086 39.099,112.409 61.759,94.193 "/>
<path fill="#00B5D8" d="M137.735,0L97.992,17.604c1.177,1.203,1.903,2.847,1.903,4.663c0,3.686-2.987,6.673-6.673,6.673
	c-3.552,0-6.447-2.776-6.653-6.277l-15.036,6.66l76.864,26.658L137.735,0z M119.215,40.027c-6.127,0-11.095-4.967-11.095-11.095
	s4.968-11.095,11.095-11.095c6.128,0,11.096,4.967,11.096,11.095C130.311,35.061,125.343,40.027,119.215,40.027z"/>
<polygon fill="#00B5D8" points="73.866,83.752 70.259,90.965 71.404,92.607 69.263,92.959 69.262,92.959 83.455,90.627 "/>
<g>
	<polygon fill="#555A59" points="61.367,94.508 62.365,94.618 61.759,94.193 	"/>
	<polygon fill="#555A59" points="3.11,83.086 15.862,85.5 57.167,93.323 57.166,93.323 61.759,94.193 71.404,92.607 66.313,85.308 
		58.247,92.377 36.448,81.102 36.545,73.978 28.301,76.888 23.104,74.2 3.11,83.086 	"/>
</g>
<path fill="#E0DACD" d="M61.759,94.193l-5.375,4.321l-13.794,11.09l0.009-0.008l-3.499,2.813l-9.275-7.56l-8.039,15.401
	c-1.663,3.187,2.367,6.28,5.016,3.85l12.68-11.643l59.155,7.504v-0.002L61.759,94.193z"/>
<path fill="#00B5D8" d="M105.475,111.17L148.4,55.983L94.193,88.861l1.347,9.427l3.098,21.676l-2.108-1.475l9.463,9.692
	c2.646,2.712,7.068-0.312,5.502-3.765L105.475,111.17z"/>
<path fill="#555A59" d="M117.118,32.307c0,1.562-1.267,2.828-2.828,2.828c-1.563,0-2.828-1.266-2.828-2.828s1.267-2.828,2.828-2.828
	C115.853,29.479,117.118,30.746,117.118,32.307"/>
<path fill="#555A59" d="M92.188,24.24c0,1.008-0.815,1.825-1.824,1.825c-1.008,0-1.823-0.817-1.823-1.825
	c0-1.008,0.815-1.825,1.823-1.825C91.372,22.415,92.188,23.232,92.188,24.24"/>
</svg>
