<?xml version="1.0" encoding="utf-8"?>
<!-- Generator: Adobe Illustrator 21.1.0, SVG Export Plug-In . SVG Version: 6.00 Build 0)  -->
<svg version="1.1" id="Layer_1" xmlns="http://www.w3.org/2000/svg" xmlns:xlink="http://www.w3.org/1999/xlink" x="0px" y="0px"
	 viewBox="0 0 212.3 134.6" style="enable-background:new 0 0 212.3 134.6;" xml:space="preserve">
<style type="text/css">
	.st0{fill:#E83F4B;}
	.st1{fill:#555A59;}
	.st2{fill:#00B5D8;}
	.st3{fill:#FFCF21;}
	.st4{fill:#E0DACD;}
	.st5{fill:#FFFFFF;stroke:#555A59;stroke-width:0.5;stroke-miterlimit:10;}
	.st6{fill:#545A59;}
</style>
<polygon class="st0" points="208.3,24 203.1,4.5 197.3,32.1 202.1,38.8 "/>
<polygon class="st1" points="202.1,38.8 208.3,24 182.5,43 "/>
<polygon class="st1" points="141.4,83.6 154.8,87.1 159.3,95.3 167.4,95.3 163,82.2 147.7,74.7 "/>
<polygon class="st2" points="163,82.2 151.4,89.1 171.3,95.3 "/>
<polygon class="st2" points="151.4,89.1 141.4,83.6 163,82.2 "/>
<polygon class="st3" points="147.7,74.7 137.4,65.9 128.7,61.4 141.4,83.6 "/>
<polygon class="st4" points="137.4,65.9 143.1,47.1 147,39 128.7,61.4 "/>
<polygon class="st3" points="143.1,47.1 137.4,65.9 149.9,48.7 "/>
<polygon class="st0" points="143.1,47.1 149.9,48.7 172.1,34.6 147,39 "/>
<polygon class="st2" points="172.1,34.6 187.7,47.2 147,39 "/>
<polygon class="st4" points="187.7,47.2 202.1,38.8 172.1,34.6 "/>
<polygon class="st3" points="187.7,47.2 160.7,41.8 172.1,34.6 "/>
<g>
	<g>
		<path class="st1" d="M19.9,46.1c-0.3-2.2-2.4-3.9-4.8-3.9c-4.4,0-6,3.8-6,7.7c0,3.8,1.6,7.5,6,7.5c3,0,4.7-2.1,5-5h4.7
			c-0.5,5.6-4.3,9.2-9.8,9.2c-6.9,0-10.9-5.2-10.9-11.7c0-6.7,4-11.9,10.9-11.9c4.9,0,9,2.9,9.6,8.1H19.9z"/>
		<path class="st1" d="M26.5,44.7h4.2v3h0.1c0.8-2,3-3.5,5.1-3.5c0.3,0,0.7,0.1,1,0.2v4.2c-0.4-0.1-1.1-0.2-1.6-0.2
			c-3.2,0-4.4,2.4-4.4,5.2V61h-4.4V44.7z"/>
		<path class="st1" d="M58.8,55.7c0,2,1.6,2.7,3.4,2.7c1.3,0,2.9-0.5,2.9-2.1c0-1.4-1.8-1.8-5-2.5c-2.5-0.6-5.1-1.5-5.1-4.3
			c0-4.2,3.5-5.2,7-5.2c3.5,0,6.7,1.2,7.1,5.2h-4.2c-0.1-1.7-1.4-2.2-3-2.2c-1,0-2.5,0.2-2.5,1.5c0,1.6,2.5,1.8,5,2.4
			c2.6,0.6,5.1,1.5,5.1,4.6c0,4.3-3.7,5.7-7.3,5.7c-3.7,0-7.4-1.4-7.6-5.7H58.8z"/>
		<path class="st1" d="M74.9,55.7c0,2,1.6,2.7,3.4,2.7c1.3,0,2.9-0.5,2.9-2.1c0-1.4-1.8-1.8-5-2.5c-2.5-0.6-5.1-1.5-5.1-4.3
			c0-4.2,3.5-5.2,7-5.2c3.5,0,6.7,1.2,7.1,5.2h-4.2c-0.1-1.7-1.4-2.2-3-2.2c-1,0-2.5,0.2-2.5,1.5c0,1.6,2.5,1.8,5,2.4
			c2.6,0.6,5.1,1.5,5.1,4.6c0,4.3-3.7,5.7-7.3,5.7c-3.7,0-7.4-1.4-7.6-5.7H74.9z"/>
		<path class="st1" d="M87,44.7h4.2v3h0.1c0.8-2,3-3.5,5.1-3.5c0.3,0,0.7,0.1,1,0.2v4.2c-0.4-0.1-1.1-0.2-1.6-0.2
			c-3.2,0-4.4,2.4-4.4,5.2V61H87V44.7z"/>
		<path class="st1" d="M109.3,51.1c-0.4-2.3-1.4-3.5-3.5-3.5c-2.8,0-3.6,2.2-3.7,3.5H109.3z M102.2,54c0.1,2.8,1.5,4.1,3.9,4.1
			c1.8,0,3.2-1.1,3.5-2.1h3.9c-1.2,3.8-3.9,5.5-7.5,5.5c-5.1,0-8.2-3.5-8.2-8.6c0-4.9,3.3-8.6,8.2-8.6c5.5,0,8.1,4.7,7.8,9.7H102.2z
			"/>
		<path class="st1" d="M116.2,47.7h-2.6v-3h2.6v-1.3c0-2.9,1.8-4.9,5.4-4.9c0.8,0,1.6,0.1,2.3,0.1V42c-0.5-0.1-1.1-0.1-1.6-0.1
			c-1.2,0-1.7,0.5-1.7,1.9v1h3v3h-3V61h-4.4V47.7z"/>
		<path class="st1" d="M45.3,58.1c3,0,3.9-2.6,3.9-5.2c0-2.6-0.9-5.2-3.9-5.2c-3,0-3.9,2.6-3.9,5.2C41.4,55.5,42.3,58.1,45.3,58.1
			 M45.3,44.3c5.1,0,8.3,3.4,8.3,8.6c0,5.2-3.3,8.6-8.3,8.6c-5,0-8.3-3.4-8.3-8.6C37,47.7,40.3,44.3,45.3,44.3"/>
	</g>
	<polygon class="st1" points="4.6,74.2 4.6,130.1 43.6,130.1 43.6,119.8 16.8,119.8 16.8,74.2 	"/>
	<g>
		<path class="st1" d="M75.1,110.3c-1.9,1.6-5.7,1.7-9.1,2.3c-3.4,0.7-6.5,1.9-6.5,6c0,4.2,3.2,5.2,6.7,5.2c8.6,0,8.9-6.9,8.9-9.3
			V110.3z M49.7,102c0.6-10.4,9.8-13.6,18.8-13.6c8,0,17.5,1.8,17.5,11.5v21.1c0,3.7,0.4,7.4,1.4,9H76.3c-0.4-1.3-0.7-2.6-0.8-3.9
			c-3.5,3.7-8.6,5-13.4,5c-7.6,0-13.6-3.8-13.6-12.1c0-9.2,6.8-11.4,13.6-12.3c6.7-1,13-0.8,13-5.3c0-4.8-3.2-5.5-7.1-5.5
			c-4.2,0-6.9,1.7-7.3,6.1H49.7z"/>
		<path class="st1" d="M112.7,96.9c-6.5,0-9.3,6.2-9.3,13c0,6.7,2.9,12.9,9.3,12.9c6.5,0,9.3-6.2,9.3-12.9
			C122,103.1,119.2,96.9,112.7,96.9 M92.8,74.2h11v20.4h0.2c2.7-4.2,7.6-6,12.6-6c8,0,16.5,6.5,16.5,21.3c0,14.9-8.6,21.4-16.5,21.4
			c-5.9,0-10.7-1.8-13.1-6.3h-0.2v5.2H92.8V74.2z"/>
		<path class="st1" d="M147.6,116.9c0.1,4.9,4.1,6.8,8.4,6.8c3.2,0,7.2-1.3,7.2-5.2c0-3.4-4.6-4.5-12.4-6.3
			c-6.3-1.4-12.7-3.7-12.7-10.8c0-10.3,8.8-13,17.4-13c8.7,0,16.8,3,17.6,12.9h-10.4c-0.3-4.3-3.6-5.5-7.5-5.5
			c-2.5,0-6.1,0.5-6.1,3.8c0,4,6.2,4.5,12.4,6c6.4,1.5,12.7,3.8,12.7,11.4c0,10.7-9.1,14.1-18.2,14.1c-9.3,0-18.3-3.5-18.8-14.3
			H147.6z"/>
	</g>
</g>
<circle class="st5" cx="54.4" cy="84.5" r="11.1"/>
<circle class="st6" cx="49.5" cy="87.9" r="2.8"/>
<circle class="st5" cx="28.4" cy="77.9" r="6.7"/>
<circle class="st6" cx="25.6" cy="79.8" r="1.8"/>
</svg>
