<?xml version="1.0" encoding="utf-8"?>
<!-- Generator: Adobe Illustrator 15.1.0, SVG Export Plug-In . SVG Version: 6.00 Build 0)  -->
<!DOCTYPE svg PUBLIC "-//W3C//DTD SVG 1.1//EN" "http://www.w3.org/Graphics/SVG/1.1/DTD/svg11.dtd">
<svg version="1.1" id="Layer_1" xmlns="http://www.w3.org/2000/svg" xmlns:xlink="http://www.w3.org/1999/xlink" x="0px" y="0px"
	 width="147.766px" height="139.525px" viewBox="0 0 147.766 139.525" enable-background="new 0 0 147.766 139.525"
	 xml:space="preserve">
<rect x="81.883" y="29.888" fill="#FFFFFF" width="23.75" height="20.687"/>
<rect x="44.508" y="26.545" fill="#FFFFFF" width="28.329" height="25.843"/>
<path fill="#E83F4B" d="M143.893,0.944c0,0,1.988,24.375-21.657,25.056l4.473,15.121C134.128,38.904,151.876,30.418,143.893,0.944z"
	/>
<path fill="#E83F4B" d="M92.112,124.213L27.863,16.473L12.048,85.17l22.494,10.969l-10.479,34.063
	c-1.919,6.236,6.299,10.433,10.226,5.219l21.703-28.82L92.112,124.213z"/>
<path fill="#FFCF21" d="M111.603,98.377l23.015-30.506L78.274,50.574L66.31,80.945l25.792,43.251l0.012,0.019l10.82-14.345
	l15.679,11.764c3.178,2.384,7.273-1.459,5.097-4.782L111.603,98.377z"/>
<path fill="#00B5D8" d="M64.85,110.918l0.336,11.821c0.086,3.021,4.313,3.64,5.26,0.77l2.802-8.496L64.85,110.918z"/>
<path fill="#E0DACD" d="M23.471,35.553C3.583,36.351,1.177,14.7,1.177,14.7c-1.778,24.549,10.249,32.519,19.018,35.084
	L23.471,35.553z"/>
<path fill="#555A59" d="M66.036,43.562c0,1.724-1.396,3.12-3.12,3.12c-1.723,0-3.118-1.396-3.118-3.12
	c0-1.723,1.396-3.12,3.118-3.12C64.639,40.443,66.036,41.84,66.036,43.562"/>
<path fill="#555A59" d="M84.563,40.473c0-5.1,4.133-9.233,9.232-9.233c1.136,0,2.22,0.216,3.224,0.591l20.793-20.793l-89.949,5.437
	L49.91,31.389c2.039-2.04,4.854-3.3,7.966-3.3c6.223,0,11.267,5.044,11.267,11.266c0,1.574-0.324,3.071-0.907,4.432l10.038,6.79
	l6.878-6.879C84.777,42.691,84.563,41.608,84.563,40.473z"/>
<path fill="#555A59" d="M99.716,43.562c0,1.724-1.397,3.12-3.12,3.12c-1.721,0-3.117-1.396-3.117-3.12
	c0-1.723,1.396-3.12,3.117-3.12C98.318,40.443,99.716,41.84,99.716,43.562"/>
<path fill="#00B5D8" d="M68.237,43.784c-1.721,4.02-5.711,6.836-10.359,6.836c-6.223,0-11.268-5.044-11.268-11.268
	c0-3.11,1.263-5.928,3.302-7.966L27.863,16.473L66.31,80.946l11.964-30.371L68.237,43.784z"/>
<path fill="#E0DACD" d="M117.812,11.036L97.02,31.829c3.508,1.309,6.01,4.679,6.01,8.644c0,5.099-4.134,9.233-9.232,9.233
	c-3.964,0-7.334-2.503-8.645-6.011l-6.878,6.879l56.342,17.297L117.812,11.036z"/>
</svg>
